<?xml version="1.0" encoding="UTF-8" standalone="no"?>
<!-- Created with Inkscape (http://www.inkscape.org/) -->

<svg
   xmlns:dc="http://purl.org/dc/elements/1.1/"
   xmlns:cc="http://creativecommons.org/ns#"
   xmlns:rdf="http://www.w3.org/1999/02/22-rdf-syntax-ns#"
   xmlns:svg="http://www.w3.org/2000/svg"
   xmlns="http://www.w3.org/2000/svg"
   xmlns:sodipodi="http://sodipodi.sourceforge.net/DTD/sodipodi-0.dtd"
   xmlns:inkscape="http://www.inkscape.org/namespaces/inkscape"
   width="512"
   height="512"
   viewBox="0 0 512 512"
   version="1.1"
   id="SVGRoot"
   inkscape:version="0.92.4 5da689c313, 2019-01-14"
   sodipodi:docname="vnix_logo.svg"
   inkscape:export-filename="/home/arch/PROGS/Rust/vnix/doc/vnix_logo.png"
   inkscape:export-xdpi="96"
   inkscape:export-ydpi="96">
  <defs
     id="defs3721" />
  <sodipodi:namedview
     id="base"
     pagecolor="#ffffff"
     bordercolor="#666666"
     borderopacity="1.0"
     inkscape:pageopacity="0.0"
     inkscape:pageshadow="2"
     inkscape:zoom="0.97503396"
     inkscape:cx="163.59842"
     inkscape:cy="219.88601"
     inkscape:document-units="px"
     inkscape:current-layer="layer1"
     showgrid="false"
     inkscape:window-width="1920"
     inkscape:window-height="1027"
     inkscape:window-x="0"
     inkscape:window-y="0"
     inkscape:window-maximized="1"
     inkscape:grid-bbox="true"
     inkscape:snap-bbox="true"
     inkscape:bbox-nodes="true"
     showguides="true"
     inkscape:snap-bbox-midpoints="true"
     inkscape:snap-bbox-edge-midpoints="false"
     inkscape:snap-global="true">
    <inkscape:grid
       type="xygrid"
       id="grid3738" />
  </sodipodi:namedview>
  <metadata
     id="metadata3724">
    <rdf:RDF>
      <cc:Work
         rdf:about="">
        <dc:format>image/svg+xml</dc:format>
        <dc:type
           rdf:resource="http://purl.org/dc/dcmitype/StillImage" />
        <dc:title />
      </cc:Work>
    </rdf:RDF>
  </metadata>
  <g
     inkscape:label="Layer 1"
     inkscape:groupmode="layer"
     id="layer1"
     transform="translate(0,256)">
    <path
       sodipodi:type="star"
       style="fill:#e57373;stroke-width:1.966874"
       id="path3756"
       sodipodi:sides="6"
       sodipodi:cx="260"
       sodipodi:cy="-4"
       sodipodi:r1="228.0556"
       sodipodi:r2="197.50197"
       sodipodi:arg1="-0.52368466"
       sodipodi:arg2="-8.5885398e-05"
       inkscape:flatsided="true"
       inkscape:rounded="0"
       inkscape:randomized="0"
       d="m 457.49215,-118.04476 0.0196,228.0556 L 260.01959,224.0556 62.507848,110.04476 62.488262,-118.01084 259.98041,-232.0556 Z" />
    <g
       transform="matrix(1.9668739,0,0,1.9668739,4.0946649,-264.13148)"
       id="text4567"
       style="font-style:normal;font-weight:normal;font-size:40px;line-height:1.25;font-family:sans-serif;letter-spacing:0px;word-spacing:0px;fill:#ffffff;fill-opacity:1;stroke:none"
       aria-label="λ" />
    <text
       xml:space="preserve"
       style="font-style:normal;font-weight:normal;font-size:40px;line-height:1.25;font-family:sans-serif;letter-spacing:0px;word-spacing:0px;fill:#ffffff;fill-opacity:1;stroke:none"
       x="185.95703"
       y="64.63932"
       id="text3806"><tspan
         sodipodi:role="line"
         id="tspan3804"
         x="185.95703"
         y="64.63932"
         style="font-style:normal;font-variant:normal;font-weight:normal;font-stretch:normal;font-size:233.33332825px;font-family:Terminus;-inkscape-font-specification:Terminus;fill:#ffffff">λ</tspan></text>
    <text
       xml:space="preserve"
       style="font-style:normal;font-variant:normal;font-weight:normal;font-stretch:normal;font-size:53.33333206px;line-height:1.25;font-family:Terminus;-inkscape-font-specification:Terminus;letter-spacing:0px;word-spacing:0px;fill:#ffffff;fill-opacity:1;stroke:none"
       x="204.20573"
       y="141.26042"
       id="text3810"><tspan
         sodipodi:role="line"
         id="tspan3808"
         x="204.20573"
         y="141.26042">vnix</tspan></text>
  </g>
</svg>
